algorithmic_means/lab_6/quartus/laba6/simulation/qsim/Sersum_V8.msim.vcd
$comment
	File created using the following command:
		vcd file Sersum_V8.msim.vcd -direction
$end
$date
	Wed May 11 21:15:27 2022
$end
$version
	ModelSim Version 10.1d
$end
$timescale
	1ps
$end
$scope module Sersum_V8_vlg_vec_tst $end
$var reg 1 ! clk $end
$var reg 1 " first $end
$var reg 1 # xs $end
$var reg 1 $ ys $end
$var wire 1 % ssum $end
$var wire 1 & sampler $end
$scope module i1 $end
$var wire 1 ' gnd $end
$var wire 1 ( vcc $end
$var wire 1 ) unknown $end
$var tri1 1 * devclrn $end
$var tri1 1 + devpor $end
$var tri1 1 , devoe $end
$var wire 1 - clk~combout $end
$var wire 1 . ys~combout $end
$var wire 1 / xs~combout $end
$var wire 1 0 first~combout $end
$var wire 1 1 ci~regout $end
$var wire 1 2 ssum~reg0_regout $end
$upscope $end
$upscope $end
$enddefinitions $end
#0
$dumpvars
0!
0"
0#
0$
0%
x&
0'
1(
x)
1*
1+
1,
0-
0.
0/
00
01
02
$end
#5000
1!
1-
0&
#15000
0!
0-
1&
#25000
1!
1-
0&
#35000
0!
0-
1&
#45000
1!
1-
0&
#55000
0!
0-
1&
#65000
1!
1-
0&
#75000
0!
0-
1&
#80000
1"
10
0&
#85000
1!
1-
1&
#95000
0!
0-
0&
#105000
1!
1-
1&
#115000
0!
0-
0&
#120000
1#
1$
1/
1.
1&
#125000
1!
1-
0&
11
#135000
0!
0-
1&
#140000
0#
0/
0&
#145000
1!
1-
1&
#155000
0!
0-
0&
#160000
1#
1/
1&
#165000
1!
1-
0&
12
1%
#175000
0!
0-
1&
#180000
0$
0.
0&
#185000
1!
1-
1&
02
0%
#195000
0!
0-
0&
#200000
0#
1$
0/
1.
1&
#205000
1!
1-
0&
#215000
0!
0-
1&
#220000
1#
1/
0&
#225000
1!
1-
1&
12
1%
#235000
0!
0-
0&
#240000
0$
0#
0.
0/
1&
#245000
1!
1-
0&
01
#255000
0!
0-
1&
#265000
1!
1-
0&
02
0%
#275000
0!
0-
1&
#285000
1!
1-
0&
#295000
0!
0-
1&
#305000
1!
1-
0&
#315000
0!
0-
1&
#325000
1!
1-
0&
#335000
0!
0-
1&
#345000
1!
1-
0&
#355000
0!
0-
1&
#365000
1!
1-
0&
#375000
0!
0-
1&
#385000
1!
1-
0&
#395000
0!
0-
1&
#405000
1!
1-
0&
#415000
0!
0-
1&
#425000
1!
1-
0&
#435000
0!
0-
1&
#445000
1!
1-
0&
#455000
0!
0-
1&
#465000
1!
1-
0&
#475000
0!
0-
1&
#485000
1!
1-
0&
#495000
0!
0-
1&
#505000
1!
1-
0&
#515000
0!
0-
1&
#525000
1!
1-
0&
#535000
0!
0-
1&
#545000
1!
1-
0&
#555000
0!
0-
1&
#565000
1!
1-
0&
#575000
0!
0-
1&
#585000
1!
1-
0&
#595000
0!
0-
1&
#605000
1!
1-
0&
#615000
0!
0-
1&
#625000
1!
1-
0&
#635000
0!
0-
1&
#645000
1!
1-
0&
#655000
0!
0-
1&
#665000
1!
1-
0&
#675000
0!
0-
1&
#685000
1!
1-
0&
#695000
0!
0-
1&
#705000
1!
1-
0&
#715000
0!
0-
1&
#725000
1!
1-
0&
#735000
0!
0-
1&
#745000
1!
1-
0&
#755000
0!
0-
1&
#765000
1!
1-
0&
#775000
0!
0-
1&
#785000
1!
1-
0&
#795000
0!
0-
1&
#805000
1!
1-
0&
#815000
0!
0-
1&
#825000
1!
1-
0&
#835000
0!
0-
1&
#845000
1!
1-
0&
#855000
0!
0-
1&
#865000
1!
1-
0&
#875000
0!
0-
1&
#885000
1!
1-
0&
#895000
0!
0-
1&
#905000
1!
1-
0&
#915000
0!
0-
1&
#925000
1!
1-
0&
#935000
0!
0-
1&
#945000
1!
1-
0&
#955000
0!
0-
1&
#965000
1!
1-
0&
#975000
0!
0-
1&
#985000
1!
1-
0&
#995000
0!
0-
1&
